{
    "linebot": {
        "secret": "54ad1f16531ffa5bb6dc81a438e21963",
        "token": "O1ZXLTmEwqhURm3DEJ+efxuHtU98cw6MLjbVtXpJDiCYdtvJRV/PA3llU73l6k97d403ree0K1m2oPgq0GYQWNnJ0sbu6BPwP2iuuq3eps9sF6NV+SDpLqdwaKpCkA42A3118dYjIzDZvAM+SyHrNgdB04t89/1O/w1cDnyilFF="
    }
}
